Anonymize Survey
…
refurl_summary_summary <- refurl_summary %>% 
  summarise(total_refurls=first(total_refurls), 
            needs_anon=first(needs_anon)) %>%
  arrange(total_respondants)

write_csv(refurl_summary_summary, "data/raw_survey_refurl_summary.csv")

refurl_summary_summary

## # A tibble: 24 x 3
##    total_respondants total_refurls needs_anon
##                <int>         <int> <lgl>     
##  1                 1            42 TRUE      
##  2                 2             9 TRUE      
##  3                 3             4 TRUE      
##  4                 4             4 TRUE      
##  5                 5             3 TRUE      
##  6                 6             1 TRUE      
##  7                 7             1 TRUE      
##  8                 8             2 TRUE      
##  9                11             3 TRUE      
## 10                13             3 TRUE      
## # ... with 14 more rows
…
